// Jest Snapshot v1, https://goo.gl/fbAQLP

exports[`<Page /> renders correctly 1`] = `
<div>
  <header>
    <div>
      <Logo />
      <Connect(LanguageSelector) />
    </div>
  </header>
  <main>
    <div
      className=""
    >
      <div />
    </div>
  </main>
</div>
`;
