// Jest Snapshot v1, https://goo.gl/fbAQLP

exports[`<PageSuccess /> render when IDENTITY_CONFIRMATION AppMode matches snapshot 1`] = `
<Page>
  <SuccessIcon />
  <Text
    center={true}
    className=""
    message={
      Object {
        "id": "page.success.IDENTITY_CONFIRMATION.title",
      }
    }
  />
</Page>
`;

exports[`<PageSuccess /> render when PAYMENT AppMode matches snapshot 1`] = `
<Page>
  <SuccessIcon />
  <Text
    center={true}
    className=""
    message={
      Object {
        "id": "page.success.PAYMENT.title",
      }
    }
  />
</Page>
`;

exports[`<PageSuccess /> render when TOKEN AppMode matches snapshot 1`] = `
<Page>
  <SuccessIcon />
  <Text
    center={true}
    className=""
    message={
      Object {
        "id": "page.success.TOKEN.title",
      }
    }
  />
</Page>
`;
